%YAML 1.1
%TAG !u! tag:unity3d.com,2011:
--- !u!114 &11400000
MonoBehaviour:
  m_ObjectHideFlags: 0
  m_CorrespondingSourceObject: {fileID: 0}
  m_PrefabInstance: {fileID: 0}
  m_PrefabAsset: {fileID: 0}
  m_GameObject: {fileID: 0}
  m_Enabled: 1
  m_EditorHideFlags: 0
  m_Script: {fileID: -1893448595, guid: a040fb66244a7f54289914d98ea4ef7d, type: 3}
  m_Name: Ground Check
  m_EditorClassIdentifier: 
  _data:
    _json: '{"graph":{"variables":{"collection":{"$content":[],"$version":"A"},"$version":"A"},"controlInputDefinitions":[{"key":null,"label":null,"summary":null,"hideLabel":false}],"controlOutputDefinitions":[],"valueInputDefinitions":[],"valueOutputDefinitions":[],"title":null,"summary":null,"pan":{"x":31.97609,"y":32.56113},"zoom":0.6999999,"elements":[{"member":{"name":"position","parameterTypes":null,"targetType":"UnityEngine.Transform","targetTypeName":"UnityEngine.Transform","$version":"A"},"defaultValues":{"target":null},"position":{"x":-314.0,"y":-122.0},"guid":"541ba643-263c-4d57-875d-bdaa5eb94b2b","$version":"A","$type":"Bolt.GetMember","$id":"10"},{"chainable":false,"member":{"name":"CircleCast","parameterTypes":["UnityEngine.Vector2","System.Single","UnityEngine.Vector2","System.Single","System.Int32","System.Single"],"targetType":"UnityEngine.Physics2D","targetTypeName":"UnityEngine.Physics2D","$version":"A"},"defaultValues":{"%origin":{"x":0.0,"y":0.0,"$type":"UnityEngine.Vector2"},"%radius":{"$content":0.0,"$type":"System.Single"},"%direction":{"x":0.0,"y":-1.0,"$type":"UnityEngine.Vector2"},"%distance":{"$content":0.0,"$type":"System.Single"},"%layerMask":{"$content":0,"$type":"System.Int32"},"%minDepth":{"$content":0.0,"$type":"System.Single"}},"position":{"x":70.0,"y":-16.0},"guid":"bf498760-9166-49b4-8aee-b0e245c97aa6","$version":"A","$type":"Bolt.InvokeMember","$id":"13"},{"type":"UnityEngine.LayerMask","value":{"value":512,"$type":"UnityEngine.LayerMask"},"defaultValues":{},"position":{"x":-120.0,"y":76.0},"guid":"d7aaa17c-b73c-4724-8b9e-31982c28413f","$version":"A","$type":"Bolt.Literal","$id":"16"},{"type":"UnityEngine.RaycastHit2D","instance":true,"static":true,"defaultValues":{},"position":{"x":316.0,"y":-50.0},"guid":"feb0a27a-ab1f-46e6-9d6a-35a70ad95a35","$version":"A","$type":"Bolt.Expose","$id":"18"},{"defaultValues":{},"position":{"x":-112.0,"y":-104.0},"guid":"009d7fd3-392a-4cb2-b545-ca841b3cadb7","$version":"A","$type":"Bolt.GenericAdd","$id":"20"},{"numeric":false,"defaultValues":{},"position":{"x":531.0,"y":109.0},"guid":"ef5061d2-55cb-46b1-8ff1-02402140dd4c","$version":"A","$type":"Bolt.NotEqual","$id":"22"},{"defaultValues":{},"position":{"x":394.0,"y":212.0},"guid":"75482177-9965-404b-9b13-095a1bc5e55a","$version":"A","$type":"Bolt.Null","$id":"24"},{"sourceUnit":{"$ref":"16"},"sourceKey":"output","destinationUnit":{"$ref":"13"},"destinationKey":"%layerMask","guid":"6c7a3e45-a452-4b4e-b1d8-b045903aa457","$type":"Bolt.ValueConnection"},{"sourceUnit":{"$ref":"13"},"sourceKey":"result","destinationUnit":{"$ref":"18"},"destinationKey":"target","guid":"33041157-3304-4fb2-9207-30409131d500","$type":"Bolt.ValueConnection"},{"sourceUnit":{"$ref":"10"},"sourceKey":"value","destinationUnit":{"$ref":"20"},"destinationKey":"a","guid":"f10989ab-1524-4806-a146-3aa63f334bde","$type":"Bolt.ValueConnection"},{"sourceUnit":{"$ref":"20"},"sourceKey":"sum","destinationUnit":{"$ref":"13"},"destinationKey":"%origin","guid":"27ae9640-702c-441c-a2eb-135daecd0947","$type":"Bolt.ValueConnection"},{"sourceUnit":{"$ref":"18"},"sourceKey":"collider","destinationUnit":{"$ref":"22"},"destinationKey":"a","guid":"02d2f1aa-db8a-4f4e-824d-bfbdf6370ef6","$type":"Bolt.ValueConnection"},{"sourceUnit":{"$ref":"24"},"sourceKey":"null","destinationUnit":{"$ref":"22"},"destinationKey":"b","guid":"8a00ae83-4995-49ed-897b-504cc099864a","$type":"Bolt.ValueConnection"}],"$version":"A"}}'
    _objectReferences: []
